{
  "project_info": {
    "project_number": "405193507973",
    "firebase_url": "https://spinkee-firebase.firebaseio.com",
    "project_id": "spinkee-firebase",
    "storage_bucket": "spinkee-firebase.appspot.com"
  },
  "client": [
    {
      "client_info": {
        "mobilesdk_app_id": "1:405193507973:android:df2247b53eda0557",
        "android_client_info": {
          "package_name": "com.p9b8805d001412d141092d7bd9d076dcd.spinkey"
        }
      },
      "oauth_client": [
        {
          "client_id": "405193507973-dae7s4i8o2hm5vvt78dv7iahu0m6g84c.apps.googleusercontent.com",
          "client_type": 1,
          "android_info": {
            "package_name": "com.p9b8805d001412d141092d7bd9d076dcd.spinkey",
            "certificate_hash": "d7ec19dfb4443572a0f17efe9c1d9a5f9a704bea"
          }
        },
        {
          "client_id": "405193507973-t260qfc3iua515f481egf39r3pqe8v63.apps.googleusercontent.com",
          "client_type": 3
        }
      ],
      "api_key": [
        {
          "current_key": "AIzaSyAsHAFjY5g3jDJ8hD2fvPLRk11JH9hBEvc"
        }
      ],
      "services": {
        "appinvite_service": {
          "other_platform_oauth_client": [
            {
              "client_id": "405193507973-t260qfc3iua515f481egf39r3pqe8v63.apps.googleusercontent.com",
              "client_type": 3
            }
          ]
        }
      }
    },
    {
      "client_info": {
        "mobilesdk_app_id": "1:405193507973:android:57ffe1ec5791d1ef",
        "android_client_info": {
          "package_name": "ru.doctopus.spinkeefree"
        }
      },
      "oauth_client": [
        {
          "client_id": "405193507973-epkebmkirnupm9b0od1l9koe59adi7o3.apps.googleusercontent.com",
          "client_type": 1,
          "android_info": {
            "package_name": "ru.doctopus.spinkeefree",
            "certificate_hash": "d7ec19dfb4443572a0f17efe9c1d9a5f9a704bea"
          }
        },
        {
          "client_id": "405193507973-t260qfc3iua515f481egf39r3pqe8v63.apps.googleusercontent.com",
          "client_type": 3
        }
      ],
      "api_key": [
        {
          "current_key": "AIzaSyAsHAFjY5g3jDJ8hD2fvPLRk11JH9hBEvc"
        }
      ],
      "services": {
        "appinvite_service": {
          "other_platform_oauth_client": [
            {
              "client_id": "405193507973-t260qfc3iua515f481egf39r3pqe8v63.apps.googleusercontent.com",
              "client_type": 3
            }
          ]
        }
      }
    }
  ],
  "configuration_version": "1"
}